{
  "project_info": {
    "project_number": "1000352317346",
    "firebase_url": "https://employeeforum-f43a6.firebaseio.com",
    "project_id": "employeeforum-f43a6",
    "storage_bucket": "employeeforum-f43a6.appspot.com"
  },
  "client": [
    {
      "client_info": {
        "mobilesdk_app_id": "1:1000352317346:android:2e4b8a414f14d202",
        "android_client_info": {
          "package_name": "com.example.tushu.employeeforum"
        }
      },
      "oauth_client": [
        {
          "client_id": "1000352317346-jh9aq2vem600fgomsqpkfhdu2n1q6j60.apps.googleusercontent.com",
          "client_type": 1,
          "android_info": {
            "package_name": "com.example.tushu.employeeforum",
            "certificate_hash": "7a81c994f2d374d1a10b879bb30900a10d3c73a9"
          }
        },
        {
          "client_id": "1000352317346-6kj81rtcus21t0iode19um9uuedgn0t2.apps.googleusercontent.com",
          "client_type": 3
        }
      ],
      "api_key": [
        {
          "current_key": "AIzaSyBGloJWZMu-gQa44xSLIWGpsROEm_g_2MY"
        }
      ],
      "services": {
        "analytics_service": {
          "status": 1
        },
        "appinvite_service": {
          "status": 2,
          "other_platform_oauth_client": [
            {
              "client_id": "1000352317346-6kj81rtcus21t0iode19um9uuedgn0t2.apps.googleusercontent.com",
              "client_type": 3
            }
          ]
        },
        "ads_service": {
          "status": 2
        }
      }
    }
  ],
  "configuration_version": "1"
}